{
                                     "auth_token": "auth_token",
                     "auth_token_expiration_date": null,
                             "confirmation_token": "confirmation_token",
                                    "create_date": "2013-08-20T11:50:27Z",
                                          "email": "jan.kowalski@gmail.com",
                                     "first_name": "Jan",
                                      "image_url": "http://image_url.com",
                                   "is_confirmed": true,
                                      "is_locked": false,
                                         "is_man": true,
                                      "last_name": "Kowalski",
                                           "nick": "jk",
                             "encrypted_password": "$2a$10$uqWzD2kDvl74S8Tpsg40J.w5.jmfZ3BUUgHXiVZgl3tx2LbZkAmYm", // == 'secret'
           "password_failures_since_last_success": 0,
                    "password_verification_token": "password_verification_token",
    "password_verification_token_expiration_date": "2013-08-21T11:50:27Z",
                                          "roles": [],
                                    "ui_settings": {}
}